{
  "promoText": "🚀 Ready to test your JavaScript skills? Join our thrilling JavaScript Quiz and prove you're a coding master! 🧠💻 \n 🔥 Challenge yourself with a variety of JavaScript questions and puzzles, from basic concepts to advanced topics. 🚀 \n🏆 Compete with fellow developers, earn points, and climb the leaderboard to claim the title of JavaScript Quiz Champion! 🥇 \n 📅 Mark your calendar and prepare for a brain-teasing experience that will level up your coding game. Don't miss out! 🔒 \n 👉 Register now and embark on a journey of code-cracking, problem-solving, and JavaScript wizardry. Are you up for the challenge? 💪🤖 #JSQuizMastery",
  "questions": [
    {
      "id": 1,
      "question": "What does the 'typeof' operator in JavaScript return when used with an array?",
      "options": ["String", "Number", "Object", "Array"],
      "answerKey": 2
    },
    {
      "id": 2,
      "question": "Which of the following is not a primitive data type in JavaScript?",
      "options": ["Number", "String", "Object", "Boolean", "Undefined"],
      "answerKey": 2
    },
    {
      "id": 3,
      "question": "What does the '===' operator in JavaScript do?",
      "options": [
        "Checks if two values are equal in value and type",
        "Checks if two values are equal in value but not in type",
        "Performs a type conversion and then checks for equality",
        "Concatenates two strings"
      ],
      "answerKey": 0
    },
    {
      "id": 4,
      "question": "What is the event handler used to detect a click on an HTML element?",
      "options": ["onMouseOver", "onHover", "onClick", "onPress"],
      "answerKey": 2
    },
    {
      "id": 5,
      "question": "What is the result of the following JavaScript code: '5' + 3?",
      "options": ["8", "53", "35", "Error"],
      "answerKey": 1
    }
  ]
}
